{
  "manifest": {
    "publishingInformation": {
      "locales": {
        "en-IN": {
          "summary": "Helps a doctor to automate daily medical transcriptions and clinic workflow.",
          "examplePhrases": [
            "Alexa, open clinical assistant",
            "Alexa, ask clinical assistant to book appointment",
            "Alexa, launch clinical assistant"
          ],
          "keywords": [
            "clinic",
            "appointment",
            "prescription",
            "diagnostics"
          ],
          "name": "clinical-assistant",
          "description": "Use Clinical Assistant to manage your daily clinic workflow.\n\nAlexa will help you manage appointments, clinic workflow and record prescriptions for future reference.\n\nTo start, just say \"Alexa, launch clinical assistant\" or \"Alexa, open clinical assistant\" to get started\".\n\nAt any time, you can stop by saying \"Alexa, stop\""
        }
      },
      "isAvailableWorldwide": true,
      "testingInstructions": "try \"Book Appointment\", \"check in\"  to check in the patient before you record prescription",
      "category": "ORGANIZERS_AND_ASSISTANTS",
      "distributionCountries": []
    },
    "apis": {
      "custom": {
        "endpoint": {
          "sourceDir": "lambda/custom"
        }
      }
    },
    "manifestVersion": "1.0"
  }
}
